<?xml version="1.0" standalone="no"?>
<!DOCTYPE svg PUBLIC "-//W3C//DTD SVG 1.1//EN" "http://www.w3.org/Graphics/SVG/1.1/DTD/svg11.dtd" >
<!--
2017-12-10: Created with FontForge (http://fontforge.org)
-->
<svg xmlns="http://www.w3.org/2000/svg" xmlns:xlink="http://www.w3.org/1999/xlink" version="1.1">
<metadata>
Created by FontForge 20160405 at Sun Dec 10 09:35:50 2017
 By Apache
Copyright (c) 2017, Apache
</metadata>
<defs>
<font id="Flaticon" horiz-adv-x="512" >
  <font-face 
    font-family="Flaticon"
    font-weight="400"
    font-stretch="normal"
    units-per-em="512"
    panose-1="2 0 5 3 0 0 0 0 0 0"
    ascent="448"
    descent="-64"
    bbox="29.085 -30.3994 482.915 414.399"
    underline-thickness="25.6"
    underline-position="-51.2"
    unicode-range="U+0020-F102"
  />
    <missing-glyph />
    <glyph glyph-name="space" unicode=" " horiz-adv-x="200" 
 />
    <glyph glyph-name="uniF101" unicode="&#xf101;" 
d="M382.546 96.8379c27.0215 0 49.041 -21.9932 49.0498 -49.0312c0 -27.0205 -21.9941 -49.0234 -49.041 -49.0234c-23.3027 0 -42.835 16.3643 -47.7832 38.1836l-163.905 28.3477c-8.70117 -13.7373 -23.9922 -22.8926 -41.4131 -22.8926
c-27.0293 0 -49.0312 21.9932 -49.0312 49.0225s21.9932 49.0322 49.0312 49.0322c9.26953 0 17.9092 -2.62695 25.3105 -7.11328l126.516 69.0967c-0.0429688 0.811523 -0.130859 1.62402 -0.130859 2.45312c0 6.37988 1.24805 12.4453 3.48242 18.04l-67.4209 65.5703
c-3.63965 -0.864258 -7.41895 -1.37012 -11.3115 -1.37012c-27.0293 0 -49.0312 22.002 -49.0312 49.0312c0 27.0303 22.002 49.0234 49.04 49.0234c27.0391 0 49.041 -21.9932 49.041 -49.0312c0 -6.93848 -1.46582 -13.5283 -4.07617 -19.5156l66.3301 -64.5234
c4.12891 1.13477 8.47461 1.79785 12.9785 1.79785c27.0205 0 49.0225 -22.002 49.0225 -49.0312c0 -27.0391 -21.9844 -49.041 -49.0225 -49.041c-10.2119 0 -19.707 3.15039 -27.5625 8.51855l-107.873 -58.9209l150.403 -26.0078
c8.99805 10.6211 22.4121 17.3848 37.3975 17.3848zM353.021 204.904c0 12.6025 -10.2461 22.8486 -22.8398 22.8486s-22.8496 -10.2461 -22.8496 -22.8486c0 -12.6123 10.2559 -22.8584 22.8496 -22.8584s22.8398 10.2461 22.8398 22.8584zM183.05 336.185
c0 -12.6025 10.2549 -22.8486 22.8486 -22.8486c12.5947 0 22.8496 10.2461 22.8496 22.8486c0 12.6035 -10.2549 22.8496 -22.8496 22.8496c-12.5938 0 -22.8486 -10.2461 -22.8486 -22.8496zM129.437 68.5957c12.6025 0 22.8486 10.2373 22.8486 22.8574
c0 12.5938 -10.2549 22.8408 -22.8486 22.8408c-12.5947 0 -22.8496 -10.2471 -22.8496 -22.8408c0 -12.6113 10.2549 -22.8574 22.8496 -22.8574zM382.546 24.957c12.5947 0 22.8408 10.2383 22.8408 22.8584c0 12.5938 -10.2461 22.8398 -22.8408 22.8398
c-12.5938 0 -22.8486 -10.2461 -22.8486 -22.8398c0 -12.6113 10.2549 -22.8584 22.8486 -22.8584z" />
    <glyph glyph-name="uniF100" unicode="&#xf100;" 
d="M339.096 352.755c1.03906 -3.33984 0.0927734 -6.99609 -2.43066 -9.42773l-34.6445 -33.3086l9.03906 -48.6162c0.631836 -1.26172 0.983398 -2.67188 0.983398 -4.1748c0.0185547 -5.19727 -3.93359 -9.35254 -9.46387 -9.2793
c-1.91016 0.0380859 -3.43262 0.40918 -4.9541 1.31836l-41.6221 24.9766l-41.623 -24.9766c-1.46582 -0.890625 -3.11719 -1.31836 -4.76855 -1.31836c-1.83789 0 -3.65625 0.539062 -5.21484 1.61426c-2.98828 2.02246 -4.52832 5.60449 -3.93457 9.18555l8.48047 50.9561
l-33.7178 33.7539c-2.46777 2.44922 -3.33984 6.06836 -2.28223 9.38965c1.05762 3.30273 3.87793 5.73438 7.31055 6.30957l50.5107 8.42383l16.6074 41.5293c2.83887 7.05176 14.4189 7.05176 17.2393 0l16.627 -41.5293l50.5107 -8.42383
c3.46973 -0.575195 6.30859 -3.04395 7.34766 -6.40234zM468.694 334.996c1.44727 -3.4707 0.648438 -7.45996 -2.00293 -10.1123l-24.3281 -24.3281l7.8125 -39.0615c0.649414 -1.26172 1.03906 -2.72754 1.03906 -4.26758c0 -5.19629 -4.6582 -9.35254 -9.46387 -9.2793
h-0.185547c-1.96582 0 -3.93359 0.630859 -5.56641 1.85547l-31.5459 23.6602l-31.5469 -23.6602c-3.06152 -2.31934 -7.27441 -2.50488 -10.5029 -0.426758c-3.2666 2.04102 -4.91797 5.90137 -4.15723 9.66797l8.29492 41.5117l-24.3271 24.3271
c-2.6543 2.65332 -3.45215 6.64355 -2.00488 10.1133c1.42969 3.46973 4.8252 5.73438 8.57324 5.73438h31.3604l15.9961 31.9912c3.1543 6.29102 13.4531 6.29102 16.6074 0l15.9961 -31.9912h31.3789c3.74805 0 7.14355 -2.26465 8.57324 -5.73438zM171.791 334.996
c1.44727 -3.4707 0.649414 -7.45996 -2.00488 -10.1123l-24.3271 -24.3281l7.81152 -39.0615c0.650391 -1.26172 1.04004 -2.72754 1.04004 -4.26758c0 -5.19629 -4.6582 -9.35254 -9.46387 -9.2793h-0.185547c-1.9668 0 -3.93359 0.630859 -5.56641 1.85547
l-31.5469 23.6602l-31.5459 -23.6602c-3.06152 -2.31934 -7.27441 -2.50488 -10.5215 -0.426758c-3.24707 2.04102 -4.89941 5.90137 -4.1377 9.66797l8.29492 41.5117l-24.3281 24.3271c-2.65332 2.65332 -3.45117 6.64355 -2.00391 10.1133
c1.42969 3.46973 4.8252 5.73438 8.57324 5.73438h31.3789l15.9775 31.9727c3.15332 6.29004 13.4521 6.29004 16.6074 0l15.9951 -31.9727h31.3799c3.74805 0 7.14355 -2.26465 8.57324 -5.73438zM441.564 173.723c15.3457 0 27.834 -12.4893 27.8359 -27.835v-167.008
c0 -5.12207 -4.15723 -9.2793 -9.27832 -9.2793h-37.1133c-5.12109 0 -9.27832 4.15723 -9.27832 9.2793v46.3906h-315.46v-46.3906c0 -5.12207 -4.15723 -9.2793 -9.27832 -9.2793h-37.1123c-5.12207 0 -9.27832 4.15723 -9.27832 9.2793v222.677
c0 15.3467 12.4883 27.835 27.834 27.835c15.3467 0 27.835 -12.4883 27.835 -27.835v-120.617h315.459v64.9482c0 15.3467 12.4883 27.835 27.835 27.835zM116.826 164.443c0 15.373 12.4629 27.835 27.835 27.835c15.373 0 27.835 -12.4619 27.835 -27.835
c0 -15.3721 -12.4619 -27.834 -27.835 -27.834c-15.3721 0 -27.835 12.4619 -27.835 27.834zM200.331 173.723c5.12109 0 9.27832 -4.15723 9.27734 -9.2793v-18.5566c0 -25.5703 -20.8203 -46.3906 -46.3906 -46.3906h-37.1133
c-5.12207 0 -9.27832 4.15625 -9.27832 9.27832c0 5.12109 4.15625 9.27832 9.27832 9.27832h37.1133c15.3457 0 27.834 12.4883 27.834 27.835v18.5557c0 5.12207 4.15723 9.2793 9.2793 9.2793zM348.782 173.723c25.5703 0 46.3906 -20.8203 46.3916 -46.3926v-18.5557
c0 -5.12207 -4.15625 -9.27832 -9.27832 -9.27832h-148.452c-5.12109 0 -9.27832 4.15625 -9.27832 9.27832v55.6689c0 5.12207 4.15723 9.2793 9.27832 9.2793v0h111.339z" />
    <glyph glyph-name="uniF102" unicode="&#xf102;" 
d="M303.756 294.334l24.6934 80.6064c3.18945 12.3838 11.5684 19.7256 22.1719 19.7256c0 0 27.1416 0 26.3252 0c10.752 0 11.5693 -7.41602 3.18945 -19.7256l-32.9248 -52.6504h21.3564c6.59961 0 8.97363 -6.59961 4.15332 -15.5723l-73.1914 -97.0693l23.8047 77.1963
h-15.5732c-4.00488 0.147461 -5.63672 1.70508 -4.00488 7.48926zM482.915 143.132v-125.841v-16.3887c0 -6.59863 -4.96875 -11.5684 -10.7529 -11.5684h-56.6543c-5.78418 0 -10.7529 5.78418 -10.7529 11.5684v16.3887v18.168h-298.325v-18.168v-16.3887
c0 -6.59863 -4.96875 -11.5684 -10.7529 -11.5684h-55.8389c-5.78418 0 -10.7529 5.78418 -10.7529 11.5684v16.3887v125.692c0 13.126 1.63184 23.8037 8.15723 37.8936l69.8545 146.233c8.15723 17.3525 29.5137 31.2939 48.4971 31.2939l150.461 -0.816406
l-14.7568 -46.8652h-113.457c-20.541 0 -28.7725 -4.15332 -38.709 -23.8037l-47.7559 -101.074h329.025l-45.2344 95.3643l12.3838 17.3516c4.15332 7.41602 7.41602 15.5732 4.15332 24.6943c-2.44727 6.59961 -8.97266 11.5674 -15.5732 13.9404l7.41602 12.3838
c8.15723 -5.7832 15.5723 -13.9404 19.7256 -22.1719l70.6689 -146.233c7.3418 -14.3125 8.97363 -24.917 8.97363 -38.042zM136.907 112.654c0 19.7246 -15.5732 35.2979 -35.2979 35.2979c-19.7256 0 -34.4824 -15.5732 -34.4824 -35.2979
c0 -19.7256 15.5723 -35.2979 34.4824 -35.2979c18.9092 0 35.2979 15.498 35.2979 35.2979zM443.464 112.654c0 19.7246 -14.7559 35.2979 -34.4814 35.2979s-35.2979 -15.5732 -35.2979 -35.2979c0 -19.7256 15.5723 -35.2979 35.2979 -35.2979
c18.835 -0.0742188 34.4814 15.498 34.4814 35.2979z" />
  </font>
</defs></svg>
